Project 1
…
# I am setting up trial url
test_URL <- "https://api.census.gov/data/2012/acs/acs1/pumspr?get=SEX,PWGTP,MAR&SCHL=24"
raw_info <-GET(test_URL)
parsed <- fromJSON(rawToChar(raw_info$content))
# The first row is column names so we have to adjust 
test_info <- as_tibble(parsed[-1,])

Warning: The `x` argument of `as_tibble.matrix()` must have unique column names if
`.name_repair` is omitted as of tibble 2.0.0.
ℹ Using compatibility `.name_repair`.

colnames(test_info) <- parsed[1,] 
test_info

# A tibble: 189 × 4
   SEX   PWGTP MAR   SCHL 
   <chr> <chr> <chr> <chr>
 1 1     38    1     24   
 2 2     120   1     24   
 3 1     43    1     24   
 4 2     25    2     24   
 5 1     80    3     24   
 6 1     83    1     24   
 7 2     109   1     24   
 8 1     74    1     24   
 9 1     63    3     24   
10 2     63    1     24   
# ℹ 179 more rows
…
  # From Data Manipulation step in instructions
  class(Census_info) <- c("census",class(Census_info))
  
  return(Census_info)
 
}

Now that it is built lets test calling it with the URL we used above.

URL_funct(test_URL)

# A tibble: 189 × 4
   SEX    PWGTP MAR   SCHL            
   <fct>  <dbl> <chr> <fct>           
 1 Male      38 1     Doctorate degree
 2 Female   120 1     Doctorate degree
 3 Male      43 1     Doctorate degree
 4 Female    25 2     Doctorate degree
 5 Male      80 3     Doctorate degree
 6 Male      83 1     Doctorate degree
 7 Female   109 1     Doctorate degree
 8 Male      74 1     Doctorate degree
 9 Male      63 3     Doctorate degree
10 Female    63 1     Doctorate degree
# ℹ 179 more rows
…
}

We want to test that our function to query and API worked!

Census_tibble <- query_api(vars = c(PWGTP = NA, GASP=3, SEX = NA))

[1] "Note: Numerical variable subsetted. While within the given range, Specific number may not be in the data"

# does our function address 001 vs 1 vs 01 for jwdp?
# I just tested it in a URL and 001, 1, and 01 all return the same thing.

Census_tibble

# A tibble: 3,144 × 4
   PWGTP SEX     GASP state
   <dbl> <fct>  <dbl> <chr>
 1    68 Female     3 11   
 2    85 Male       3 11   
 3    25 Female     3 11   
 4    66 Female     3 11   
 5   108 Female     3 11   
 6   277 Male       3 11   
 7   142 Female     3 11   
 8   140 Female     3 11   
 9   142 Female     3 11   
10   288 Female     3 11   
# ℹ 3,134 more rows
…
  return(multi_year_tbl)
  
}

We want to test that our function to make a table with multiple years worked!

yrs = c(2012, 2013, 2021)
multi_yr_tbl <- build_multi_year_tbl(years = yrs)
multi_yr_tbl

# A tibble: 20,037 × 5
    year PWGTP  AGEP SEX    state
   <dbl> <dbl> <dbl> <fct>  <chr>
 1  2012    40    87 Female 11   
 2  2012    68    43 Female 11   
 3  2012    74    19 Male   11   
 4  2012    56    12 Male   11   
 5  2012    81    58 Female 11   
 6  2012   119    23 Female 11   
 7  2012    65    93 Female 11   
 8  2012    98    48 Female 11   
 9  2012     9    93 Female 11   
10  2012   192    46 Female 11   
# ℹ 20,027 more rows
…
